…
## Part 3: Transform data with dplyr and finding insight the data

1.เรียงลำดับราคาจากน้อยไปมาก

```
dataset %>% arrange(Sales)
```

Result:

```
# A tibble: 9,800 x 18
   `Row ID` `Order ID`     `Order Date` `Ship Date` `Ship Mode` `Customer ID` `Customer Name` Segment Country City  State `Postal Code`
      <dbl> <chr>          <chr>        <chr>       <chr>       <chr>         <chr>           <chr>   <chr>   <chr> <chr>         <dbl>
 1     4102 US-2018-102288 19/06/2018   23/06/2018  Standard C~ ZC-21910      Zuschuss Carro~ Consum~ United~ Hous~ Texas         77095
 2     9293 CA-2018-124114 02/03/2018   02/03/2018  Same Day    RS-19765      Roland Schwarz  Corpor~ United~ Waco  Texas         76706
 3     8659 CA-2017-168361 21/06/2017   25/06/2017  Standard C~ KB-16600      Ken Brennan     Corpor~ United~ Chic~ Illi~         60623
 4     4712 CA-2015-112403 31/03/2015   31/03/2015  Same Day    JO-15280      Jas O'Carroll   Consum~ United~ Phil~ Penn~         19120
 5     2107 US-2015-152723 26/09/2015   26/09/2015  Same Day    HG-14965      Henry Goldwyn   Corpor~ United~ Mesq~ Texas         75150
 6     7549 CA-2015-103492 10/10/2015   15/10/2015  Standard C~ CM-12715      Craig Molinari  Corpor~ United~ Hunt~ Texas         77340
 7     8034 CA-2016-119690 25/06/2016   28/06/2016  First Class MV-17485      Mark Van Huff   Consum~ United~ Hous~ Texas         77041
 8     2762 CA-2018-126536 12/10/2018   14/10/2018  First Class NK-18490      Neil Knudson    Home O~ United~ San ~ Cali~         94110
 9     8025 CA-2015-129189 21/07/2015   25/07/2015  Standard C~ HM-14860      Harry Marie     Corpor~ United~ Dall~ Texas         75217
10      977 US-2018-100209 09/07/2018   15/07/2018  Standard C~ TD-20995      Tamara Dahlen   Consum~ United~ Port~ Oreg~         97206
# ... with 9,790 more rows, and 6 more variables: Region <chr>, Product ID <chr>, Category <chr>, Sub-Category <chr>,
#   Product Name <chr>, Sales <dbl>
…
